<svg xmlns="http://www.w3.org/2000/svg" xmlns:xlink="http://www.w3.org/1999/xlink" width="153.382" height="26.402" viewBox="0 0 153.382 26.402">
  <defs>
    <clipPath id="clip-path">
      <rect id="Rectángulo_152" data-name="Rectángulo 152" width="153.382" height="26.402" fill="none"/>
    </clipPath>
  </defs>
  <g id="Grupo_848" data-name="Grupo 848" clip-path="url(#clip-path)">
    <path id="Trazado_3162" data-name="Trazado 3162" d="M33.357,17.732,28.481,2.316a3.334,3.334,0,0,0-.429-.89A3.354,3.354,0,0,0,23.379.61L1.425,16.039a3.354,3.354,0,0,0,1.927,6.1H30.187a3.354,3.354,0,0,0,3.354-3.354,3.31,3.31,0,0,0-.185-1.051m-10.872-10L9.068,17.121a.838.838,0,0,1-.962-1.374L21.523,6.356a.838.838,0,0,1,.962,1.374" transform="translate(0 0)" fill="#fff"/>
    <path id="Trazado_3163" data-name="Trazado 3163" d="M85.109,25A4.988,4.988,0,0,0,80,30.175a5.128,5.128,0,0,0,5.369,5.174,5.969,5.969,0,0,0,3.724-1.1.378.378,0,0,0,.087-.52l-.563-.931c-.108-.216-.282-.238-.476-.086a4.278,4.278,0,0,1-2.533.823A3.316,3.316,0,0,1,82.143,30.8h7.383a.352.352,0,0,0,.368-.368v-.346C89.893,27.1,87.967,25,85.109,25m2.728,4.265H82.165a2.952,2.952,0,0,1,3.009-2.511,2.635,2.635,0,0,1,2.663,2.468Z" transform="translate(-41.666 -13.021)" fill="#fff"/>
    <path id="Trazado_3164" data-name="Trazado 3164" d="M85.109,25A4.988,4.988,0,0,0,80,30.175a5.128,5.128,0,0,0,5.369,5.174,5.969,5.969,0,0,0,3.724-1.1.378.378,0,0,0,.087-.52l-.563-.931c-.108-.216-.282-.238-.476-.086a4.278,4.278,0,0,1-2.533.823A3.316,3.316,0,0,1,82.143,30.8h7.383a.352.352,0,0,0,.368-.368v-.346C89.893,27.1,87.967,25,85.109,25Zm2.728,4.265H82.165a2.952,2.952,0,0,1,3.009-2.511,2.635,2.635,0,0,1,2.663,2.468Z" transform="translate(-41.666 -13.021)" fill="none" stroke="#fff" stroke-miterlimit="10" stroke-width="0.2"/>
    <path id="Trazado_3165" data-name="Trazado 3165" d="M113.886,25.2h-1.234a.347.347,0,0,0-.368.346l-.065.974A4.585,4.585,0,0,0,108.669,25a4.9,4.9,0,0,0-4.828,5.174,4.888,4.888,0,0,0,4.806,5.174,4.358,4.358,0,0,0,3.637-1.775l.065,1.234a.329.329,0,0,0,.346.346h1.191a.331.331,0,0,0,.368-.368V25.563a.331.331,0,0,0-.368-.368m-4.806,8.183a3.207,3.207,0,0,1,0-6.408,3.048,3.048,0,0,1,3.117,3.2,3.036,3.036,0,0,1-3.117,3.2" transform="translate(-54.084 -13.021)" fill="#fff"/>
    <path id="Trazado_3166" data-name="Trazado 3166" d="M113.886,25.2h-1.234a.347.347,0,0,0-.368.346l-.065.974A4.585,4.585,0,0,0,108.669,25a4.9,4.9,0,0,0-4.828,5.174,4.888,4.888,0,0,0,4.806,5.174,4.358,4.358,0,0,0,3.637-1.775l.065,1.234a.329.329,0,0,0,.346.346h1.191a.331.331,0,0,0,.368-.368V25.563A.331.331,0,0,0,113.886,25.2Zm-4.806,8.183a3.207,3.207,0,0,1,0-6.408,3.048,3.048,0,0,1,3.117,3.2A3.036,3.036,0,0,1,109.08,33.378Z" transform="translate(-54.084 -13.021)" fill="none" stroke="#fff" stroke-miterlimit="10" stroke-width="0.2"/>
    <path id="Trazado_3167" data-name="Trazado 3167" d="M134.115,29.2c-1.689-.411-2.295-.671-2.295-1.321,0-.736.671-1.061,1.6-1.061a5.426,5.426,0,0,1,2.706.714.318.318,0,0,0,.5-.108l.541-1a.317.317,0,0,0-.108-.5,6.93,6.93,0,0,0-3.529-.888c-2.338,0-3.9,1.148-3.9,2.944,0,1.775,1.6,2.533,3.55,3.009,1.58.39,2.1.736,2.1,1.429,0,.758-.671,1.169-1.775,1.169a5.542,5.542,0,0,1-3.053-.888.324.324,0,0,0-.5.108l-.585,1.018c-.108.217-.086.39.13.5a7.352,7.352,0,0,0,3.875,1.039c2.533,0,4.092-1.234,4.092-3.053,0-1.862-1.255-2.576-3.356-3.117" transform="translate(-67.349 -13.044)" fill="#fff"/>
    <path id="Trazado_3168" data-name="Trazado 3168" d="M134.115,29.2c-1.689-.411-2.295-.671-2.295-1.321,0-.736.671-1.061,1.6-1.061a5.426,5.426,0,0,1,2.706.714.318.318,0,0,0,.5-.108l.541-1a.317.317,0,0,0-.108-.5,6.93,6.93,0,0,0-3.529-.888c-2.338,0-3.9,1.148-3.9,2.944,0,1.775,1.6,2.533,3.55,3.009,1.58.39,2.1.736,2.1,1.429,0,.758-.671,1.169-1.775,1.169a5.542,5.542,0,0,1-3.053-.888.324.324,0,0,0-.5.108l-.585,1.018c-.108.217-.086.39.13.5a7.352,7.352,0,0,0,3.875,1.039c2.533,0,4.092-1.234,4.092-3.053C137.47,30.458,136.215,29.743,134.115,29.2Z" transform="translate(-67.349 -13.044)" fill="none" stroke="#fff" stroke-miterlimit="10" stroke-width="0.2"/>
    <path id="Trazado_3169" data-name="Trazado 3169" d="M158.441,25.407h-1.516a.4.4,0,0,0-.411.281l-2.879,7.21-2.922-7.21a.4.4,0,0,0-.412-.281h-1.667c-.259,0-.368.173-.259.433l4.113,9.525-1.538,3.81c-.107.238.022.411.282.411h1.408a.424.424,0,0,0,.411-.281l1.969-4.7,3.68-8.768c.108-.26,0-.433-.259-.433" transform="translate(-77.256 -13.233)" fill="#fff"/>
    <path id="Trazado_3170" data-name="Trazado 3170" d="M158.441,25.407h-1.516a.4.4,0,0,0-.411.281l-2.879,7.21-2.922-7.21a.4.4,0,0,0-.412-.281h-1.667c-.259,0-.368.173-.259.433l4.113,9.525-1.538,3.81c-.107.238.022.411.282.411h1.408a.424.424,0,0,0,.411-.281l1.969-4.7,3.68-8.768C158.808,25.58,158.7,25.407,158.441,25.407Z" transform="translate(-77.256 -13.233)" fill="none" stroke="#fff" stroke-miterlimit="10" stroke-width="0.2"/>
    <path id="Trazado_3171" data-name="Trazado 3171" d="M179.473,25a4.431,4.431,0,0,0-3.637,1.71l-.065-1.169a.336.336,0,0,0-.368-.346h-1.126a.341.341,0,0,0-.368.368V39.007a.341.341,0,0,0,.368.368h1.407a.341.341,0,0,0,.368-.368V33.725a4.363,4.363,0,0,0,3.464,1.623,4.875,4.875,0,0,0,4.806-5.174A4.922,4.922,0,0,0,179.473,25m-.39,8.378a3.035,3.035,0,0,1-3.117-3.2,3.024,3.024,0,0,1,3.117-3.2,3.207,3.207,0,0,1,0,6.408" transform="translate(-90.577 -13.021)" fill="#fff"/>
    <path id="Trazado_3172" data-name="Trazado 3172" d="M179.473,25a4.431,4.431,0,0,0-3.637,1.71l-.065-1.169a.336.336,0,0,0-.368-.346h-1.126a.341.341,0,0,0-.368.368V39.007a.341.341,0,0,0,.368.368h1.407a.341.341,0,0,0,.368-.368V33.725a4.363,4.363,0,0,0,3.464,1.623,4.875,4.875,0,0,0,4.806-5.174A4.922,4.922,0,0,0,179.473,25Zm-.39,8.378a3.035,3.035,0,0,1-3.117-3.2,3.024,3.024,0,0,1,3.117-3.2,3.207,3.207,0,0,1,0,6.408Z" transform="translate(-90.577 -13.021)" fill="none" stroke="#fff" stroke-miterlimit="10" stroke-width="0.2"/>
    <path id="Trazado_3173" data-name="Trazado 3173" d="M205.6,25.022a3.522,3.522,0,0,0-.476-.022,3.4,3.4,0,0,0-3.377,2.143l-.065-1.6a.335.335,0,0,0-.368-.346h-1.126a.341.341,0,0,0-.368.368v9.223a.341.341,0,0,0,.368.368h1.429a.331.331,0,0,0,.368-.368V29.849a2.726,2.726,0,0,1,2.836-2.793,2.1,2.1,0,0,1,.563.065c.238.043.39-.044.411-.3l.13-1.386a.343.343,0,0,0-.325-.411" transform="translate(-104.074 -13.021)" fill="#fff"/>
    <path id="Trazado_3174" data-name="Trazado 3174" d="M205.6,25.022a3.522,3.522,0,0,0-.476-.022,3.4,3.4,0,0,0-3.377,2.143l-.065-1.6a.335.335,0,0,0-.368-.346h-1.126a.341.341,0,0,0-.368.368v9.223a.341.341,0,0,0,.368.368h1.429a.331.331,0,0,0,.368-.368V29.849a2.726,2.726,0,0,1,2.836-2.793,2.1,2.1,0,0,1,.563.065c.238.043.39-.044.411-.3l.13-1.386A.343.343,0,0,0,205.6,25.022Z" transform="translate(-104.074 -13.021)" fill="none" stroke="#fff" stroke-miterlimit="10" stroke-width="0.2"/>
    <path id="Trazado_3175" data-name="Trazado 3175" d="M219.5,25.045a5.165,5.165,0,1,0,5.282,5.174,5.176,5.176,0,0,0-5.282-5.174m0,8.357a3.206,3.206,0,1,1,3.1-3.183,3.133,3.133,0,0,1-3.1,3.183" transform="translate(-111.561 -13.044)" fill="#fff"/>
    <path id="Trazado_3176" data-name="Trazado 3176" d="M219.5,25.045a5.165,5.165,0,1,0,5.282,5.174A5.176,5.176,0,0,0,219.5,25.045Zm0,8.357a3.206,3.206,0,1,1,3.1-3.183A3.133,3.133,0,0,1,219.5,33.4Z" transform="translate(-111.561 -13.044)" fill="none" stroke="#fff" stroke-miterlimit="10" stroke-width="0.2"/>
    <path id="Trazado_3177" data-name="Trazado 3177" d="M252.207,25a3.876,3.876,0,0,0-3.4,2.013A4,4,0,0,0,245.171,25a3.8,3.8,0,0,0-3.377,1.97l-.065-1.429a.365.365,0,0,0-.39-.346h-.909a.341.341,0,0,0-.368.368v9.223a.341.341,0,0,0,.368.368h1.429a.331.331,0,0,0,.368-.368l.022-5.326a2.6,2.6,0,0,1,2.576-2.511c1.472,0,2.425,1.169,2.425,2.966v4.871a.325.325,0,0,0,.346.368h1.451a.341.341,0,0,0,.368-.368V29.849a2.654,2.654,0,0,1,2.576-2.9c1.516,0,2.425,1.169,2.425,2.966v4.871a.325.325,0,0,0,.346.368h1.45a.325.325,0,0,0,.346-.368V29.633c0-2.793-1.753-4.633-4.351-4.633" transform="translate(-125.032 -13.021)" fill="#fff"/>
    <path id="Trazado_3178" data-name="Trazado 3178" d="M252.207,25a3.876,3.876,0,0,0-3.4,2.013A4,4,0,0,0,245.171,25a3.8,3.8,0,0,0-3.377,1.97l-.065-1.429a.365.365,0,0,0-.39-.346h-.909a.341.341,0,0,0-.368.368v9.223a.341.341,0,0,0,.368.368h1.429a.331.331,0,0,0,.368-.368l.022-5.326a2.6,2.6,0,0,1,2.576-2.511c1.472,0,2.425,1.169,2.425,2.966v4.871a.325.325,0,0,0,.346.368h1.451a.341.341,0,0,0,.368-.368V29.849a2.654,2.654,0,0,1,2.576-2.9c1.516,0,2.425,1.169,2.425,2.966v4.871a.325.325,0,0,0,.346.368h1.45a.325.325,0,0,0,.346-.368V29.633C256.558,26.84,254.805,25,252.207,25Z" transform="translate(-125.032 -13.021)" fill="none" stroke="#fff" stroke-miterlimit="10" stroke-width="0.2"/>
    <path id="Trazado_3179" data-name="Trazado 3179" d="M282.987,25.045a5.165,5.165,0,1,0,5.282,5.174,5.176,5.176,0,0,0-5.282-5.174m0,8.357a3.206,3.206,0,1,1,3.1-3.183,3.133,3.133,0,0,1-3.1,3.183" transform="translate(-144.626 -13.044)" fill="#fff"/>
    <path id="Trazado_3180" data-name="Trazado 3180" d="M282.987,25.045a5.165,5.165,0,1,0,5.282,5.174A5.176,5.176,0,0,0,282.987,25.045Zm0,8.357a3.206,3.206,0,1,1,3.1-3.183A3.133,3.133,0,0,1,282.987,33.4Z" transform="translate(-144.626 -13.044)" fill="none" stroke="#fff" stroke-miterlimit="10" stroke-width="0.2"/>
    <path id="Trazado_3181" data-name="Trazado 3181" d="M307.774,29.2c-1.689-.411-2.295-.671-2.295-1.321,0-.736.671-1.061,1.6-1.061a5.425,5.425,0,0,1,2.706.714.318.318,0,0,0,.5-.108l.541-1a.318.318,0,0,0-.108-.5,6.93,6.93,0,0,0-3.529-.888c-2.338,0-3.9,1.148-3.9,2.944,0,1.775,1.6,2.533,3.55,3.009,1.58.39,2.1.736,2.1,1.429,0,.758-.671,1.169-1.775,1.169a5.541,5.541,0,0,1-3.052-.888.324.324,0,0,0-.5.108l-.585,1.018c-.108.217-.086.39.13.5a7.355,7.355,0,0,0,3.876,1.039c2.533,0,4.092-1.234,4.092-3.053,0-1.862-1.255-2.576-3.356-3.117" transform="translate(-157.796 -13.044)" fill="#fff"/>
    <path id="Trazado_3182" data-name="Trazado 3182" d="M307.774,29.2c-1.689-.411-2.295-.671-2.295-1.321,0-.736.671-1.061,1.6-1.061a5.425,5.425,0,0,1,2.706.714.318.318,0,0,0,.5-.108l.541-1a.318.318,0,0,0-.108-.5,6.93,6.93,0,0,0-3.529-.888c-2.338,0-3.9,1.148-3.9,2.944,0,1.775,1.6,2.533,3.55,3.009,1.58.39,2.1.736,2.1,1.429,0,.758-.671,1.169-1.775,1.169a5.541,5.541,0,0,1-3.052-.888.324.324,0,0,0-.5.108l-.585,1.018c-.108.217-.086.39.13.5a7.355,7.355,0,0,0,3.876,1.039c2.533,0,4.092-1.234,4.092-3.053C311.13,30.458,309.875,29.743,307.774,29.2Z" transform="translate(-157.796 -13.044)" fill="none" stroke="#fff" stroke-miterlimit="10" stroke-width="0.2"/>
  </g>
</svg>
