<svg xmlns="http://www.w3.org/2000/svg" width="60.332" height="59.98" viewBox="0 0 60.332 59.98">
  <g id="Grupo_446" data-name="Grupo 446" transform="translate(0)">
    <g id="Grupo_438" data-name="Grupo 438" transform="translate(0 0)">
      <path id="Trazado_358" data-name="Trazado 358" d="M-2959.781-282.969h-27.872V-310.84h27.872Zm-25.525-2.347h23.178v-23.178h-23.178Z" transform="translate(2987.654 310.84)" fill="#999"/>
    </g>
    <g id="Grupo_439" data-name="Grupo 439" transform="translate(8.711 8.069)">
      <path id="Trazado_359" data-name="Trazado 359" d="M-2907-234.948h-1.607a.32.32,0,0,1-.315-.225l-.751-1.818h-4.521l-.752,1.818a.319.319,0,0,1-.315.225h-1.607c-.21,0-.3-.12-.225-.315l4.4-10.035a.331.331,0,0,1,.33-.21h.9a.345.345,0,0,1,.331.21l4.357,10.035C-2906.7-235.068-2906.794-234.948-2907-234.948Zm-6.535-3.8h3.2l-1.592-3.816Z" transform="translate(2917.125 245.508)" fill="#999"/>
    </g>
    <g id="Grupo_440" data-name="Grupo 440" transform="translate(32.461 0)">
      <path id="Trazado_360" data-name="Trazado 360" d="M-2696.962-282.969h-27.872V-310.84h27.872Zm-25.525-2.347h23.178v-23.178h-23.178Z" transform="translate(2724.833 310.84)" fill="#999"/>
    </g>
    <g id="Grupo_441" data-name="Grupo 441" transform="translate(42.399 8.069)">
      <path id="Trazado_361" data-name="Trazado 361" d="M-2636.146-237.967c0,1.878-1.247,3.02-4.011,3.02h-3.936a.253.253,0,0,1-.271-.27v-10.02a.253.253,0,0,1,.271-.27h3.68c2.764,0,3.89,1.172,3.89,2.734a2.375,2.375,0,0,1-1.547,2.3A2.527,2.527,0,0,1-2636.146-237.967Zm-4.3-5.814h-1.893v2.674h2.043c1.187,0,1.757-.481,1.757-1.307S-2639.09-243.781-2640.442-243.781Zm2.253,5.678c0-.8-.6-1.352-1.983-1.352h-2.163v2.779h2.163C-2638.85-236.675-2638.189-237.216-2638.189-238.1Z" transform="translate(2644.363 245.508)" fill="#999"/>
    </g>
    <g id="Grupo_442" data-name="Grupo 442" transform="translate(0 32.108)">
      <path id="Trazado_362" data-name="Trazado 362" d="M-2959.781-23h-27.872V-50.873h27.872Zm-25.525-2.347h23.178V-48.526h-23.178Z" transform="translate(2987.654 50.873)" fill="#999"/>
    </g>
    <g id="Grupo_443" data-name="Grupo 443" transform="translate(9.293 40.042)">
      <path id="Trazado_363" data-name="Trazado 363" d="M-2912.414,18.787a5.316,5.316,0,0,1,5.618-5.423,6.058,6.058,0,0,1,3.275.871.274.274,0,0,1,.09.391l-.646,1.157a.231.231,0,0,1-.375.09,4.453,4.453,0,0,0-2.224-.571,3.325,3.325,0,0,0-3.605,3.47,3.329,3.329,0,0,0,3.605,3.485,4.479,4.479,0,0,0,2.224-.556.247.247,0,0,1,.375.09l.646,1.157a.272.272,0,0,1-.12.405,5.889,5.889,0,0,1-3.245.841A5.3,5.3,0,0,1-2912.414,18.787Z" transform="translate(2912.414 -13.364)" fill="#999"/>
    </g>
    <g id="Grupo_444" data-name="Grupo 444" transform="translate(32.461 32.108)">
      <path id="Trazado_364" data-name="Trazado 364" d="M-2696.962-23h-27.872V-50.873h27.872Zm-25.525-2.347h23.178V-48.526h-23.178Z" transform="translate(2724.833 50.873)" fill="#999"/>
    </g>
    <g id="Grupo_445" data-name="Grupo 445" transform="translate(42.385 40.177)">
      <path id="Trazado_365" data-name="Trazado 365" d="M-2634.87,19.732c0,3.17-2.209,5.288-5.543,5.288h-3.786a.257.257,0,0,1-.285-.27V14.729a.257.257,0,0,1,.285-.27h3.786C-2637.078,14.459-2634.87,16.562-2634.87,19.732Zm-2.1.03a3.259,3.259,0,0,0-3.53-3.47h-1.908v6.9h1.908A3.239,3.239,0,0,0-2636.973,19.762Z" transform="translate(2644.484 -14.459)" fill="#999"/>
    </g>
  </g>
</svg>
