<svg xmlns="http://www.w3.org/2000/svg" width="62.024" height="64.445" viewBox="0 0 62.024 64.445">
  <g id="ONWTMJ.tif" transform="translate(0)">
    <g id="Grupo_427" data-name="Grupo 427" transform="translate(0 0)">
      <path id="Trazado_345" data-name="Trazado 345" d="M-1623.487,1665.414c-.29-1.028-.584-2-.836-2.978-.248-.963-.454-1.937-.695-2.976.9,0,1.708-.013,2.511.018.093,0,.219.24.26.388.459,1.64.917,3.281,1.345,4.929.128.495.372.622.877.617,4.325-.048,8.651-.061,12.977-.085h.557v-5.842h2.607v5.827h.505c4.58-.025,9.16-.054,13.74-.066a.512.512,0,0,0,.586-.444c.425-1.572.872-3.138,1.294-4.711.2-.729.021-.624.8-.633.653-.007,1.307,0,2.072,0l-1.468,5.746c.117.006.26.02.4.02,2.155-.014,4.311-.036,6.466-.039a.547.547,0,0,0,.591-.35c.724-1.655,1.472-3.3,2.174-4.964.135-.32.273-.432.608-.419a4.3,4.3,0,0,0,2.33-.372,31.983,31.983,0,0,1-29.782,23.561,32.067,32.067,0,0,1-32.241-23.932,3.852,3.852,0,0,0,2.654.769c.128,0,.321.226.375.384a31.889,31.889,0,0,0,2.321,5.193.646.646,0,0,0,.661.39c1.946-.024,3.892-.023,5.838-.03Zm19.545,14.571c.163-.015.339-.024.514-.049a12.972,12.972,0,0,0,6.309-2.822,24.158,24.158,0,0,0,6.714-8.962,1.4,1.4,0,0,0,.067-.224h-13.6Zm-2.663-11.975h-12.973c.05.139.069.209.1.273a26.263,26.263,0,0,0,4.554,6.9,15.216,15.216,0,0,0,6.424,4.29c.592.191,1.207.315,1.9.491Zm12.564,10.042a29.845,29.845,0,0,0,13.221-10.2c-.212-.012-.341-.025-.469-.025-1.9.006-3.8.022-5.7.014a.539.539,0,0,0-.589.395,29.717,29.717,0,0,1-3.81,6.679C-1592.207,1675.975-1593.117,1676.966-1594.041,1678.053Zm-22.139-.383c-.274-.288-.553-.571-.822-.865a29.886,29.886,0,0,1-5.3-8.418.508.508,0,0,0-.562-.362c-1.719.021-3.439.02-5.159.028-.126,0-.253.018-.451.034A29.058,29.058,0,0,0-1616.18,1677.67Z" transform="translate(1635.805 -1618.216)" fill="#999"/>
      <path id="Trazado_346" data-name="Trazado 346" d="M-1563.543,1229.157c-.848,0-1.656-.011-2.463.007a.445.445,0,0,1-.467-.313c-.408-.849-.825-1.693-1.263-2.526a.557.557,0,0,0-.389-.276c-2.305,0-4.611.025-6.916.045a.446.446,0,0,0-.109.038l.854,3.022c-.9,0-1.729.009-2.559-.014-.085,0-.2-.189-.24-.31-.258-.8-.5-1.6-.743-2.4a.392.392,0,0,0-.436-.338q-6.961.05-13.922.081c-.071,0-.142.016-.277.032v2.93h-2.611v-2.947h-.523c-4.506.023-9.012.05-13.518.058-.4,0-.581.114-.679.507-.173.7-.418,1.373-.611,2.063a.4.4,0,0,1-.463.346c-.761-.02-1.524-.007-2.356-.007l.8-2.878h-.614c-1.961.007-3.922.021-5.884.015a.553.553,0,0,0-.592.351c-.333.718-.714,1.415-1.034,2.14a.547.547,0,0,1-.606.38c-.788-.02-1.577-.007-2.333-.007a31.9,31.9,0,0,1,27.756-20.535A32.055,32.055,0,0,1-1563.543,1229.157Zm-45.019-5.614h13.535v-12.293c-.233.029-.455.048-.674.086a13.107,13.107,0,0,0-5.918,2.755,23.32,23.32,0,0,0-6.188,7.882C-1608.07,1222.489-1608.308,1223.015-1608.562,1223.543Zm16.179-.069h13.343c-.047-.133-.066-.2-.1-.266a25.555,25.555,0,0,0-5.411-7.921,14.278,14.278,0,0,0-6.433-3.766c-.438-.11-.886-.178-1.4-.281Zm22.834-.023a29.909,29.909,0,0,0-13.382-10.327c.719.794,1.385,1.482,2,2.215a30.682,30.682,0,0,1,4.62,7.758c.085.2.145.362.427.36C-1573.821,1223.445-1571.756,1223.451-1569.548,1223.451Zm-48.121.223h.492c1.766-.011,3.531-.032,5.3-.026a.566.566,0,0,0,.615-.425,30.511,30.511,0,0,1,4.69-7.92c.493-.592,1.024-1.152,1.537-1.728A29.058,29.058,0,0,0-1617.67,1223.674Z" transform="translate(1624.601 -1208.547)" fill="#999"/>
      <path id="Trazado_347" data-name="Trazado 347" d="M-1230.617,1466.439a14.123,14.123,0,0,1-6.82-1.669,7.975,7.975,0,0,1-4.07-6.576,9.943,9.943,0,0,1,.577-4.538,7.909,7.909,0,0,1,4.876-4.655,15.4,15.4,0,0,1,11.046.067,8.159,8.159,0,0,1,5.344,7.908,8.444,8.444,0,0,1-2.763,6.825,9.639,9.639,0,0,1-4.771,2.229C-1228.325,1466.232-1229.476,1466.307-1230.617,1466.439Zm.008-15.065c-2.5,0-4.264,1.172-4.912,3.388a8.944,8.944,0,0,0-.331,2.473,8.247,8.247,0,0,0,.327,2.429c.818,2.639,3,3.622,5.535,3.367a4.621,4.621,0,0,0,4.451-3.809,9.023,9.023,0,0,0,.139-3.21A4.848,4.848,0,0,0-1230.609,1451.375Z" transform="translate(1277.015 -1426.471)" fill="#999"/>
      <path id="Trazado_348" data-name="Trazado 348" d="M-1468.145,1461.946c1.076.372,2.1.773,3.155,1.08a13.6,13.6,0,0,0,5.713.577,5.978,5.978,0,0,0,1.65-.515,1.362,1.362,0,0,0,.793-1.393,1.336,1.336,0,0,0-.905-1.321c-.989-.321-2.01-.547-3.02-.8-1.459-.365-2.949-.635-4.375-1.1a4.248,4.248,0,0,1-2.963-2.831,4.848,4.848,0,0,1,2.275-5.808,10.194,10.194,0,0,1,4.663-1.12,31.538,31.538,0,0,1,7.877.8c.134.029.342.182.344.281.024,1.15.016,2.3.016,3.457-.986-.276-1.936-.58-2.9-.806a13.606,13.606,0,0,0-5.868-.234,3.275,3.275,0,0,0-.952.373,1.352,1.352,0,0,0-.689,1.36,1.169,1.169,0,0,0,.844,1.106,23.605,23.605,0,0,0,2.644.653,27.184,27.184,0,0,1,5.184,1.189,4.256,4.256,0,0,1,2.919,2.868c.651,2.639-.125,5.562-3.645,6.641a16.117,16.117,0,0,1-4.924.581,28.034,28.034,0,0,1-7.38-1.116c-.345-.1-.473-.231-.463-.607C-1468.125,1464.157-1468.145,1463.054-1468.145,1461.946Z" transform="translate(1483.394 -1427.097)" fill="#999"/>
      <path id="Trazado_349" data-name="Trazado 349" d="M-1576.885,1470.017h-5.421v-17.6h5.421Z" transform="translate(1587.118 -1430.483)" fill="#999"/>
    </g>
  </g>
</svg>
