<svg xmlns="http://www.w3.org/2000/svg" width="76.082" height="54.42" viewBox="0 0 76.082 54.42">
  <g id="Grupo_490" data-name="Grupo 490" transform="translate(0)">
    <g id="Grupo_482" data-name="Grupo 482" transform="translate(0 0)">
      <path id="Trazado_392" data-name="Trazado 392" d="M-4988.338-292.416h-51.36a2.831,2.831,0,0,1-2.828-2.828v-35.983a2.831,2.831,0,0,1,2.828-2.828h57.477a2.831,2.831,0,0,1,2.828,2.828v16.619h-2.218v-16.619a.618.618,0,0,0-.61-.61H-5039.7a.618.618,0,0,0-.61.61v35.983a.618.618,0,0,0,.61.61h51.36Z" transform="translate(5042.526 334.055)" fill="#999"/>
    </g>
    <g id="Grupo_483" data-name="Grupo 483" transform="translate(1.109 28.959)">
      <rect id="Rectángulo_78" data-name="Rectángulo 78" width="53.727" height="2.218" transform="translate(0 0)" fill="#999"/>
    </g>
    <g id="Grupo_484" data-name="Grupo 484" transform="translate(23.217 39.421)">
      <path id="Trazado_393" data-name="Trazado 393" d="M-4828.048,17.119h-14.48a1.109,1.109,0,0,1-1.109-1.109V4.752a1.109,1.109,0,0,1,1.109-1.109h14.48a1.109,1.109,0,0,1,1.108,1.109V16.01A1.109,1.109,0,0,1-4828.048,17.119Zm-13.371-2.218h12.262V5.861h-12.262Z" transform="translate(4843.637 -3.643)" fill="#999"/>
    </g>
    <g id="Grupo_485" data-name="Grupo 485" transform="translate(13.813 50.678)">
      <path id="Trazado_394" data-name="Trazado 394" d="M-4888.8,102.3h-34.294a1.109,1.109,0,0,1-1.109-1.109,1.109,1.109,0,0,1,1.109-1.109h34.294a1.109,1.109,0,0,1,1.108,1.109A1.109,1.109,0,0,1-4888.8,102.3Z" transform="translate(4924.2 -100.081)" fill="#999"/>
    </g>
    <g id="Grupo_486" data-name="Grupo 486" transform="translate(30.042 33.497)">
      <ellipse id="Elipse_137" data-name="Elipse 137" cx="1.524" cy="1.524" rx="1.524" ry="1.524" transform="translate(0 0)" fill="#999"/>
    </g>
    <g id="Grupo_487" data-name="Grupo 487" transform="translate(53.079 18.671)">
      <path id="Trazado_395" data-name="Trazado 395" d="M-4567.337-138.361h-17.983a2.513,2.513,0,0,1-2.51-2.51V-171.6a2.513,2.513,0,0,1,2.51-2.51h17.983a2.512,2.512,0,0,1,2.51,2.51v30.73A2.512,2.512,0,0,1-4567.337-138.361Zm-17.983-33.531a.3.3,0,0,0-.292.292v30.73a.3.3,0,0,0,.292.292h17.983a.3.3,0,0,0,.292-.292V-171.6a.3.3,0,0,0-.292-.292Z" transform="translate(4587.83 174.11)" fill="#999"/>
    </g>
    <g id="Grupo_488" data-name="Grupo 488" transform="translate(63.056 46.739)">
      <ellipse id="Elipse_138" data-name="Elipse 138" cx="1.524" cy="1.524" rx="1.524" ry="1.524" transform="translate(0 0)" fill="#999"/>
    </g>
    <g id="Grupo_489" data-name="Grupo 489" transform="translate(60.529 25.096)">
      <path id="Trazado_396" data-name="Trazado 396" d="M-4516.336-117.316h-6.8a.876.876,0,0,1-.875-.876.876.876,0,0,1,.875-.876h6.8a.875.875,0,0,1,.875.876A.875.875,0,0,1-4516.336-117.316Z" transform="translate(4524.008 119.067)" fill="#999"/>
    </g>
  </g>
</svg>
